ru\geekfactory\homefinance\service\CategoryService.class
ru\geekfactory\homefinance\service\TransactionService.class
ru\geekfactory\homefinance\service\CurrentServiceImpl.class
ru\geekfactory\homefinance\service\main.class
ru\geekfactory\homefinance\service\CurrencyService.class
