ru\geekfactory\homefinance\dao\repository\ConnectionSupplier.class
ru\geekfactory\homefinance\dao\repository\CurrencyRepository.class
ru\geekfactory\homefinance\dao\model\OperationModel.class
ru\geekfactory\homefinance\dao\repository\TransactionCategoryRepository.class
ru\geekfactory\homefinance\dao\model\CurrencyModel.class
ru\geekfactory\homefinance\dao\repository\TransactionRepository.class
ru\geekfactory\homefinance\dao\model\CategoryModel.class
ru\geekfactory\homefinance\dao\HomeFinanceException.class
ru\geekfactory\homefinance\dao\repository\AccountRepository.class
ru\geekfactory\homefinance\dao\repository\TestManyToMany.class
ru\geekfactory\homefinance\dao\model\TransactionType.class
ru\geekfactory\homefinance\dao\repository\CategoryRepository.class
ru\geekfactory\homefinance\dao\model\ParentCategoryModel.class
ru\geekfactory\homefinance\dao\repository\Repository.class
ru\geekfactory\homefinance\dao\repository\CategoryTransactionRepository.class
ru\geekfactory\homefinance\dao\model\AccountUsersModel.class
ru\geekfactory\homefinance\dao\repository\TransactionTypeRepository.class
ru\geekfactory\homefinance\dao\model\TransactionModel.class
